<svg width="358" height="91" viewBox="0 0 358 91" fill="none" xmlns="http://www.w3.org/2000/svg">
<path d="M7.23377 89.0068C4.36345 89.0068 1.75408 86.7282 0.579861 83.0255C-0.594358 79.4653 0.0579861 75.3354 2.14549 72.4872C2.27595 72.2024 21.7158 45.8565 33.5885 27.3432C33.7189 27.0584 34.8931 24.7798 39.851 15.3808L42.1994 10.1116L42.3299 9.82679C44.9392 4.84244 49.2447 4.55762 55.5072 4.55762C64.64 4.55762 78.8611 5.98172 80.4267 6.12413H80.8181C84.6017 6.55136 87.472 10.6812 87.472 15.808V77.7564C87.472 83.0255 84.2103 87.4402 80.2963 87.4402H67.9017C63.9877 87.4402 60.726 83.1679 60.726 77.7564V65.6515L39.3291 63.9426L21.4549 86.4434C20.1502 88.1523 18.3236 89.0068 16.497 89.0068H7.23377Z" fill="#1E384B"/>
<path d="M80.0354 12.2477C79.3831 12.2477 64.6401 10.6812 55.3768 10.6812C49.1143 10.6812 47.1573 11.2508 46.1136 13.2445V13.3869L43.7651 18.6561C43.7651 18.7985 43.6347 18.7985 43.6347 18.9409C38.0245 29.7641 37.2417 31.3306 37.1112 31.473C25.1081 49.9863 5.53777 76.7594 5.27684 77.0442C3.71121 79.038 4.88543 82.5982 6.97293 82.5982H16.3667C17.019 82.5982 17.5409 82.3134 18.0628 81.7437L36.5893 58.3885C37.1112 57.8189 37.7636 57.3916 38.4159 57.534L63.0745 59.5278C64.3792 59.6702 65.2925 61.0943 65.2925 62.8032V77.7563C65.2925 79.6076 66.3362 81.0317 67.7714 81.0317H80.1659C81.4706 81.0317 82.6448 79.6076 82.6448 77.7563V15.5231C82.6448 13.8142 81.6011 12.3901 80.4268 12.2477H80.0354Z" fill="#FF7C03"/>
<path d="M52.3761 34.3207C52.7675 33.7511 53.4199 33.3239 53.9417 33.3239L60.2042 32.6118C61.7699 32.4694 63.0745 34.1783 63.0745 36.3145V37.7386C63.0745 39.8747 61.7699 41.5836 60.2042 41.4412L53.9417 40.8716C51.7238 40.7292 50.68 36.5993 52.3761 34.3207Z" fill="#020203" stroke="#1E384B" stroke-miterlimit="10"/>
<path d="M145.531 89.0066C143.704 89.0066 142.008 88.0098 140.703 86.3008C139.399 84.5919 138.746 82.1709 138.877 79.75L140.964 13.9565C141.095 9.1146 144.095 5.26953 147.749 5.26953C149.967 5.26953 151.924 6.69363 153.228 9.1146L155.838 13.9565L158.317 9.25701C159.621 6.83604 161.578 5.41194 163.796 5.41194C165.623 5.41194 167.319 6.40881 168.624 8.11773C169.928 9.82665 170.581 12.1052 170.581 14.5262L169.667 79.6076C169.537 84.4495 166.667 88.2946 163.144 88.437L145.531 89.0066Z" fill="#1E384B"/>
<path d="M165.493 14.3832L164.579 79.4646C164.579 80.8887 163.666 82.028 162.622 82.028L145.531 82.5976C144.357 82.5976 143.443 81.3159 143.574 79.8918L145.661 14.0984C145.792 11.535 148.14 10.6806 149.184 12.6743L154.011 21.931C154.794 23.3551 156.49 23.3551 157.143 21.931L161.84 12.9591C163.144 10.823 165.623 11.8198 165.493 14.3832Z" fill="#FF7C03"/>
<path d="M230.074 89.5767C227.073 89.5767 224.464 87.0133 223.551 83.3107L222.246 78.3263L218.332 84.1651C217.027 86.1589 215.07 87.2982 213.113 87.2982C210.504 87.2982 208.025 85.3044 206.851 82.1714L202.154 69.6393L184.019 87.7254C182.844 88.8647 181.409 89.5767 179.844 89.5767H171.755C169.276 89.5767 166.927 87.7254 165.622 84.7348C164.448 81.7442 164.448 78.0415 165.883 75.1933L197.065 8.83024C198.37 6.12445 200.588 4.41553 202.937 4.41553C205.807 4.41553 208.547 6.8365 209.46 10.6816L218.462 44.5752L231.64 13.6722C232.944 10.6816 235.162 8.97265 237.641 8.97265C241.555 8.97265 244.687 13.1025 244.687 18.3717V80.1777C244.687 85.3044 241.555 89.5767 237.772 89.5767H230.074Z" fill="#1E384B"/>
<path d="M169.928 78.6107L201.11 12.2476C202.153 10.1115 204.371 10.5387 205.024 12.8173L215.983 53.6889C216.635 56.1099 218.984 56.3947 220.028 54.1162L235.945 16.6623C237.119 13.9566 240.12 15.0958 240.12 18.0864V79.8924C240.12 81.4589 239.076 82.883 237.902 82.883H230.204C229.291 82.883 228.378 82.0285 228.117 80.8893L225.377 70.4933C224.855 68.3572 222.767 67.7875 221.724 69.4965L214.939 79.75C213.896 81.3165 212.069 80.8893 211.286 79.0379L205.285 62.8032C204.632 61.0943 203.067 60.667 202.023 61.8063L181.409 82.4558C181.017 82.883 180.626 83.0254 180.104 83.0254H172.015C170.058 83.1678 169.014 80.6044 169.928 78.6107Z" fill="#FF7C03"/>
<path d="M250.297 88.8639C247.166 88.8639 244.556 85.446 244.556 81.1737V16.3772C244.556 12.1049 247.166 8.68701 250.297 8.68701H282.131C285.001 8.68701 287.872 11.82 288.133 15.6651C288.394 19.3678 286.567 22.6432 283.958 23.4977L267.258 29.3365C267.258 29.3365 267.258 29.3365 267.258 29.4789V36.457V36.5994L285.523 40.8717C287.48 41.2989 289.176 42.8654 289.959 45.2864C291.394 49.9859 289.307 54.8279 285.915 55.8247L267.258 61.0939C267.258 61.0939 267.258 61.0939 267.258 61.2363V68.2144V68.3568L283.697 74.0532C286.437 75.0501 288.394 78.3255 288.133 82.0282C287.872 86.0156 285.523 89.0063 282.523 89.0063H250.297V88.8639Z" fill="#1E384B"/>
<path d="M284.479 46.9956L263.083 42.0112C262.691 41.8688 262.3 41.4416 262.3 40.7295V25.4916C262.3 24.922 262.561 24.3524 262.952 24.2099L282.131 17.5167C283.175 17.0894 283.044 15.0957 281.87 15.0957H262.561H256.037H250.297C249.775 15.0957 249.383 15.6653 249.383 16.3774V24.0675V29.0519V68.4995V73.7686V81.174C249.383 81.886 249.775 82.4556 250.297 82.4556H256.037H262.561H281.87C282.914 82.4556 283.175 80.3195 282.131 80.0347L262.952 73.3414C262.561 73.199 262.3 72.6294 262.3 72.0597V56.8218C262.3 56.2522 262.561 55.6826 263.083 55.5402L284.479 49.4165C285.523 49.2741 285.523 47.2804 284.479 46.9956Z" fill="#FF7C03"/>
<path d="M351.932 91C350.497 91 349.062 90.2879 348.018 89.1487L322.055 61.0939L321.272 62.0908L305.355 85.5884C304.181 87.2973 302.485 88.4366 300.789 88.4366L291.134 88.579C288.525 88.579 286.176 86.5853 285.263 83.3099C284.219 80.1768 284.741 76.4742 286.568 74.0532L307.573 45.4288L293.222 30.0485C292.178 28.9092 291.395 27.3427 291.004 25.6338L288.003 10.6808C287.481 8.11737 287.872 5.41158 289.047 3.27543C290.221 1.13928 292.178 0 294.135 0C295.57 0 297.005 0.71205 298.179 1.99374L320.489 27.4851L335.363 7.26291C336.276 5.98122 337.581 4.98435 339.016 4.84194L350.758 2.70579C351.019 2.70579 351.411 2.56338 351.672 2.56338C354.281 2.56338 356.499 4.69953 357.543 7.83255C358.456 11.108 357.934 14.6682 355.977 17.0892L334.841 44.1471L334.972 44.2895L354.15 63.0876C355.586 64.5117 356.499 66.5055 356.629 68.784L357.934 81.0313C358.195 83.4523 357.673 85.8732 356.499 87.7246C355.455 89.8607 353.759 91 351.932 91Z" fill="#1E384B"/>
<path d="M353.368 82.1709L352.063 69.9236C352.063 69.354 351.802 68.9268 351.411 68.4995L332.101 49.559L331.971 49.4166L329.101 45.9987C328.448 45.1443 328.448 43.7202 329.101 42.8657L352.715 12.5324C353.759 11.1083 352.976 8.68732 351.411 8.97214L339.669 11.1083C339.277 11.1083 339.016 11.3931 338.755 11.6779L321.794 34.8908C321.272 35.6028 320.359 35.7452 319.707 35.0332L295.309 6.9784C294.135 5.69671 292.439 7.12081 292.83 9.11455L295.831 24.0676C295.962 24.4948 296.092 24.9221 296.353 25.2069L313.444 43.5778C314.227 44.2898 314.227 45.8563 313.575 46.7108L312.14 48.7045L290.09 78.7531C289.177 80.0347 289.829 82.3133 291.265 82.3133L300.919 82.1709C301.311 82.1709 301.833 81.8861 302.094 81.4588L317.88 57.6764L318.011 57.534L321.012 53.8313C321.533 53.1192 322.447 53.1192 323.099 53.6889L326.752 57.534L351.28 84.0222C352.063 85.3039 353.629 84.0222 353.368 82.1709Z" fill="#FF7C03"/>
<path d="M321.403 49.4153C323.42 49.4153 325.056 47.2475 325.056 44.5734C325.056 41.8993 323.42 39.7314 321.403 39.7314C319.385 39.7314 317.75 41.8993 317.75 44.5734C317.75 47.2475 319.385 49.4153 321.403 49.4153Z" fill="#020203" stroke="#1E384B" stroke-width="1.5" stroke-miterlimit="10"/>
<path d="M90.0808 86.4431C88.3847 86.4431 86.8191 85.4463 85.7754 83.7374C84.7316 82.0284 84.2097 79.7499 84.6011 77.6137L93.2121 15.2381C93.734 11.6779 96.0824 9.11451 98.6918 9.11451C99.9965 9.11451 101.171 9.68415 102.214 10.8234L108.607 17.8015C107.825 15.6654 107.955 13.2444 108.868 11.2507C109.912 8.68728 112.13 7.26318 114.609 7.26318C114.87 7.26318 115.261 7.26318 115.522 7.40559L123.22 8.54487C125.568 8.82969 127.395 10.3962 128.439 12.8172L129.352 15.0957L130.135 16.9471V17.2319L130.657 18.9408C138.224 43.2929 141.746 59.3852 141.225 66.5057C141.225 68.2147 140.833 69.9236 140.05 71.2053C139.007 73.0566 137.441 74.0535 135.614 74.0535C134.179 74.0535 132.875 73.3414 131.831 72.0597L110.173 44.2898L107.564 74.0535C107.303 76.9017 105.868 79.3226 103.911 80.1771L92.0379 86.0159C91.3855 86.3007 90.7332 86.4431 90.0808 86.4431Z" fill="#1E384B"/>
<path d="M126.352 21.3614C126.091 20.6494 125.961 20.0797 125.83 19.7949C125.7 19.2253 125.569 18.9405 125.569 18.9405V19.2253V19.0829V18.9405L125.439 18.6556L125.308 18.086L124.265 15.8074C124.004 15.2378 123.351 14.8106 122.699 14.6682L115.001 13.5289C113.697 13.3865 112.653 14.0985 113.044 15.0954L117.219 24.6369L118.002 27.0578L120.742 36.1721C121.003 37.3114 120.09 38.1658 119.437 37.4538L99.3451 15.665C98.8232 15.0954 98.1709 15.5226 98.0404 16.3771L89.4295 78.7527C89.299 79.6071 89.9514 80.3192 90.4732 80.0344L102.346 74.1956C102.607 74.0531 102.868 73.6259 102.868 73.3411L106.39 33.1815C106.521 32.327 107.304 31.8998 107.826 32.4694L135.224 67.2175C135.876 67.9295 136.79 67.2175 136.659 66.2206C137.833 58.8153 129.092 30.0484 126.352 21.3614Z" fill="#FF7C03"/>
</svg>
