<svg width="436" height="161" viewBox="0 0 436 161" fill="none" xmlns="http://www.w3.org/2000/svg">
<g filter="url(#filter0_di_717_666)">
<rect x="4" width="428" height="153" fill="black"/>
</g>
<rect x="4" y="149" width="216" height="4" fill="#FF7C03"/>
<rect x="220" y="149" width="212" height="4" fill="#171816"/>
<defs>
<filter id="filter0_di_717_666" x="0" y="0" width="436" height="161" filterUnits="userSpaceOnUse" color-interpolation-filters="sRGB">
<feFlood flood-opacity="0" result="BackgroundImageFix"/>
<feColorMatrix in="SourceAlpha" type="matrix" values="0 0 0 0 0 0 0 0 0 0 0 0 0 0 0 0 0 0 127 0" result="hardAlpha"/>
<feOffset dy="4"/>
<feGaussianBlur stdDeviation="2"/>
<feComposite in2="hardAlpha" operator="out"/>
<feColorMatrix type="matrix" values="0 0 0 0 0 0 0 0 0 0 0 0 0 0 0 0 0 0 0.25 0"/>
<feBlend mode="normal" in2="BackgroundImageFix" result="effect1_dropShadow_717_666"/>
<feBlend mode="normal" in="SourceGraphic" in2="effect1_dropShadow_717_666" result="shape"/>
<feColorMatrix in="SourceAlpha" type="matrix" values="0 0 0 0 0 0 0 0 0 0 0 0 0 0 0 0 0 0 127 0" result="hardAlpha"/>
<feOffset dy="4"/>
<feGaussianBlur stdDeviation="2"/>
<feComposite in2="hardAlpha" operator="arithmetic" k2="-1" k3="1"/>
<feColorMatrix type="matrix" values="0 0 0 0 0 0 0 0 0 0 0 0 0 0 0 0 0 0 0.25 0"/>
<feBlend mode="normal" in2="shape" result="effect2_innerShadow_717_666"/>
</filter>
</defs>
</svg>
