<svg width="36" height="30" viewBox="0 0 36 30" fill="none" xmlns="http://www.w3.org/2000/svg">
<path d="M18 25C18.8284 25 19.5 24.4404 19.5 23.75C19.5 23.0596 18.8284 22.5 18 22.5C17.1716 22.5 16.5 23.0596 16.5 23.75C16.5 24.4404 17.1716 25 18 25Z" stroke="white" stroke-width="2" stroke-linecap="round" stroke-linejoin="round"/>
<path d="M18 16.25C18.8284 16.25 19.5 15.6904 19.5 15C19.5 14.3096 18.8284 13.75 18 13.75C17.1716 13.75 16.5 14.3096 16.5 15C16.5 15.6904 17.1716 16.25 18 16.25Z" stroke="white" stroke-width="2" stroke-linecap="round" stroke-linejoin="round"/>
<path d="M18 7.5C18.8284 7.5 19.5 6.94036 19.5 6.25C19.5 5.55964 18.8284 5 18 5C17.1716 5 16.5 5.55964 16.5 6.25C16.5 6.94036 17.1716 7.5 18 7.5Z" stroke="white" stroke-width="2" stroke-linecap="round" stroke-linejoin="round"/>
</svg>
