<svg width="36" height="35" viewBox="0 0 36 35" fill="none" xmlns="http://www.w3.org/2000/svg">
<path d="M12.75 0H4.25C3.12283 0 2.04183 0.447767 1.2448 1.2448C0.447767 2.04183 0 3.12283 0 4.25V12.75C0 13.8772 0.447767 14.9582 1.2448 15.7552C2.04183 16.5522 3.12283 17 4.25 17H12.75C13.8772 17 14.9582 16.5522 15.7552 15.7552C16.5522 14.9582 17 13.8772 17 12.75V4.25C17 3.12283 16.5522 2.04183 15.7552 1.2448C14.9582 0.447767 13.8772 0 12.75 0ZM15.3 12.75C15.3 13.4263 15.0313 14.0749 14.5531 14.5531C14.0749 15.0313 13.4263 15.3 12.75 15.3H4.25C3.5737 15.3 2.9251 15.0313 2.44688 14.5531C1.96866 14.0749 1.7 13.4263 1.7 12.75V4.25C1.7 3.5737 1.96866 2.9251 2.44688 2.44688C2.9251 1.96866 3.5737 1.7 4.25 1.7H12.75C13.4263 1.7 14.0749 1.96866 14.5531 2.44688C15.0313 2.9251 15.3 3.5737 15.3 4.25V12.75Z" fill="#FF7C03"/>
<path d="M31.75 18H23.25C22.1228 18 21.0418 18.4478 20.2448 19.2448C19.4478 20.0418 19 21.1228 19 22.25V30.75C19 31.8772 19.4478 32.9582 20.2448 33.7552C21.0418 34.5522 22.1228 35 23.25 35H31.75C32.8772 35 33.9582 34.5522 34.7552 33.7552C35.5522 32.9582 36 31.8772 36 30.75V22.25C36 21.1228 35.5522 20.0418 34.7552 19.2448C33.9582 18.4478 32.8772 18 31.75 18ZM34.3 30.75C34.3 31.4263 34.0313 32.0749 33.5531 32.5531C33.0749 33.0313 32.4263 33.3 31.75 33.3H23.25C22.5737 33.3 21.9251 33.0313 21.4469 32.5531C20.9687 32.0749 20.7 31.4263 20.7 30.75V22.25C20.7 21.5737 20.9687 20.9251 21.4469 20.4469C21.9251 19.9687 22.5737 19.7 23.25 19.7H31.75C32.4263 19.7 33.0749 19.9687 33.5531 20.4469C34.0313 20.9251 34.3 21.5737 34.3 22.25V30.75Z" fill="#FF7C03"/>
<path d="M12.75 18H4.25C3.12283 18 2.04183 18.4478 1.2448 19.2448C0.447767 20.0418 0 21.1228 0 22.25V30.75C0 31.8772 0.447767 32.9582 1.2448 33.7552C2.04183 34.5522 3.12283 35 4.25 35H12.75C13.8772 35 14.9582 34.5522 15.7552 33.7552C16.5522 32.9582 17 31.8772 17 30.75V22.25C17 21.1228 16.5522 20.0418 15.7552 19.2448C14.9582 18.4478 13.8772 18 12.75 18ZM15.3 30.75C15.3 31.4263 15.0313 32.0749 14.5531 32.5531C14.0749 33.0313 13.4263 33.3 12.75 33.3H4.25C3.5737 33.3 2.9251 33.0313 2.44688 32.5531C1.96866 32.0749 1.7 31.4263 1.7 30.75V22.25C1.7 21.5737 1.96866 20.9251 2.44688 20.4469C2.9251 19.9687 3.5737 19.7 4.25 19.7H12.75C13.4263 19.7 14.0749 19.9687 14.5531 20.4469C15.0313 20.9251 15.3 21.5737 15.3 22.25V30.75Z" fill="#FF7C03"/>
<path d="M31.75 0H23.25C22.1228 0 21.0418 0.447767 20.2448 1.2448C19.4478 2.04183 19 3.12283 19 4.25V12.75C19 13.8772 19.4478 14.9582 20.2448 15.7552C21.0418 16.5522 22.1228 17 23.25 17H31.75C32.8772 17 33.9582 16.5522 34.7552 15.7552C35.5522 14.9582 36 13.8772 36 12.75V4.25C36 3.12283 35.5522 2.04183 34.7552 1.2448C33.9582 0.447767 32.8772 0 31.75 0ZM34.3 12.75C34.3 13.4263 34.0313 14.0749 33.5531 14.5531C33.0749 15.0313 32.4263 15.3 31.75 15.3H23.25C22.5737 15.3 21.9251 15.0313 21.4469 14.5531C20.9687 14.0749 20.7 13.4263 20.7 12.75V4.25C20.7 3.5737 20.9687 2.9251 21.4469 2.44688C21.9251 1.96866 22.5737 1.7 23.25 1.7H31.75C32.4263 1.7 33.0749 1.96866 33.5531 2.44688C34.0313 2.9251 34.3 3.5737 34.3 4.25V12.75Z" fill="#FF7C03"/>
</svg>
