<svg width="41" height="31" viewBox="0 0 41 31" fill="none" xmlns="http://www.w3.org/2000/svg">
<path d="M16.4 31V20.0588H24.6V31H34.85V16.4118H41L20.5 0L0 16.4118H6.15V31H16.4Z" fill="#FF7C03"/>
</svg>
