<svg width="27" height="33" viewBox="0 0 27 33" fill="none" xmlns="http://www.w3.org/2000/svg">
<path d="M23.1429 0H3.85714C1.73571 0 0.0192862 1.65 0.0192862 3.66667L0 33L13.5 27.5L27 33V3.66667C27 1.65 25.2643 0 23.1429 0ZM23.1429 27.5L13.5 23.5033L3.85714 27.5V3.66667H23.1429V27.5Z" fill="white"/>
</svg>
